{
  "appId": "com.example.app",
  "appName": "GMH",
  "bundledWebRuntime": false,
  "npmClient": "npm",
  "webDir": "dist",
  "linuxAndroidStudioPath": "/nix/store/a773kjkzlps0gyhjbv1xvk5qvjcz1whs-user-environment/bin/android-studio",
  "plugins": {
    "SplashScreen": {
      "launchShowDuration": 0
    }
  },
  "cordova": {}
}
